<?xml version="1.0" encoding="utf-8"?>
<!-- Generator: Adobe Illustrator 19.0.0, SVG Export Plug-In . SVG Version: 6.00 Build 0)  -->
<svg version="1.1" id="Layer_1" xmlns="http://www.w3.org/2000/svg" xmlns:xlink="http://www.w3.org/1999/xlink" x="0px" y="0px"
	 viewBox="0 0 364 364" style="enable-background:new 0 0 364 364;" xml:space="preserve">
<style type="text/css">
	.st0{fill:#FEBF10;}
	.st1{fill:#EE2724;}
	.st2{fill:#4F2B76;}
</style>
<path id="XMLID_21_" class="st0" d="M220.6,34.1C275.2,48,318.3,91,332.1,145.6h14.5C332.2,83.2,283,34.1,220.6,19.7V34.1z"/>
<path id="XMLID_20_" class="st1" d="M144.7,332.6C89.3,318.4,45.9,274,32.9,218.2H18.4C31.9,281.8,81.5,332.3,144.7,347V332.6z"/>
<path id="XMLID_19_" class="st2" d="M21.8,162.3c-10.8,0-19.5,8.8-19.5,19.5c0,10.8,8.8,19.5,19.5,19.5c10.8,0,19.5-8.8,19.5-19.5
	C41.4,171,32.6,162.3,21.8,162.3"/>
<path id="XMLID_18_" class="st2" d="M341.9,162.3c-10.8,0-19.5,8.8-19.5,19.5c0,10.8,8.8,19.5,19.5,19.5c10.8,0,19.5-8.8,19.5-19.5
	C361.4,171,352.7,162.3,341.9,162.3"/>
<path id="XMLID_17_" class="st2" d="M162.3,341.8c0,10.8,8.8,19.5,19.5,19.5c10.8,0,19.5-8.8,19.5-19.5c0-10.8-8.8-19.5-19.5-19.5
	C171.1,322.3,162.3,331.1,162.3,341.8"/>
<path id="XMLID_16_" class="st2" d="M162.3,21.8c0,10.8,8.8,19.5,19.5,19.5c10.8,0,19.5-8.8,19.5-19.5c0-10.8-8.8-19.5-19.5-19.5
	C171.1,2.2,162.3,11,162.3,21.8"/>
<path id="XMLID_15_" class="st2" d="M200.2,177.5c0-12.9-10.5-23.4-23.4-23.4h-32.3c-0.2,0-0.4,0-0.6,0h-23.8
	c3,9.9,12.1,16.8,22.6,16.8h31.1c3.6,0,6.5,2.9,6.5,6.5c0,3.6-2.9,6.5-6.5,6.5h-40.4L119,200.9h57.8
	C189.7,200.9,200.2,190.4,200.2,177.5"/>
<path id="XMLID_14_" class="st2" d="M295.9,162.2c0-21.3-17.4-38.7-38.7-38.7h-42.5l-14.2,17.5H253c11.8,0,21.4,9.6,21.4,21.4
	c0,11.8-9.6,21.4-21.4,21.4h-10.2h-2.4v-2.4V154h-23.8v46.9h40.5C278.5,200.9,295.9,183.6,295.9,162.2"/>
<path id="XMLID_13_" class="st2" d="M142.7,123.5c-10.7,0-20.1,7.4-22.8,17.5h24.6h38.7l14.4-17.5H142.7z"/>
<rect id="XMLID_12_" x="80.1" y="154" class="st2" width="23.6" height="46.9"/>
<path id="XMLID_11_" class="st2" d="M104.3,133.2c0-6.8-5.5-12.3-12.3-12.3c-6.8,0-12.3,5.5-12.3,12.3c0,6.8,5.5,12.3,12.3,12.3
	C98.8,145.5,104.3,140,104.3,133.2"/>
<path class="st2" d="M94.2,256.6h-7.1l-1,6.8h-7.6l6.7-41.1h11.2l7.2,41.1h-8.4L94.2,256.6z M88.2,249.7h5l-1.2-8
	c-0.7-4.4-1-7.5-1.3-9.9c-0.2,2.4-0.7,5.6-1.3,9.9L88.2,249.7z"/>
<polygon id="XMLID_8_" class="st2" points="110.5,263.4 110.5,229.8 104,229.8 104,222.3 125.7,222.3 125.7,229.8 119.1,229.8 
	119.1,263.4 "/>
<polygon id="XMLID_7_" class="st2" points="130.1,263.4 130.1,222.3 138.9,222.3 138.9,237.8 145,237.8 145,222.3 153.8,222.3 
	153.8,263.4 145,263.4 145,246.2 138.9,246.2 138.9,263.4 "/>
<polygon id="XMLID_6_" class="st2" points="168.2,222.3 168.2,255.5 177.9,255.5 177.9,263.4 159.5,263.4 159.5,222.3 "/>
<polygon id="XMLID_5_" class="st2" points="201.5,222.3 201.5,229.8 190.8,229.8 190.8,238.4 199.8,238.4 199.8,246 190.8,246 
	190.8,255.8 201.9,255.8 201.9,263.4 182.3,263.4 182.3,222.3 "/>
<polygon id="XMLID_4_" class="st2" points="211.5,263.4 211.5,229.8 205,229.8 205,222.3 226.7,222.3 226.7,229.8 220.1,229.8 
	220.1,263.4 "/>
<rect id="XMLID_3_" x="231.1" y="222.3" class="st2" width="8.8" height="41.1"/>
<path id="XMLID_2_" class="st2" d="M260.1,246.1h8.4v7c0,5.8-2.8,10.8-10.6,10.8h-1.5c-7.9,0-11-4.4-11-11.3V233
	c0-6.9,3-11.2,10.8-11.2h1.5c7.8,0,10.8,3.8,10.8,10.6v5.2h-8.4V233c0-2.5-0.7-3.9-3-3.9c-2.1,0-2.9,1.4-2.9,3.9v19.6
	c0,2.6,0.8,4,2.9,4c2.2,0,3-1.5,3-3.9V246.1z"/>
<path id="XMLID_1_" class="st2" d="M295.8,230.2v4.8h-8.3v-3.5c0-2.2-0.9-3.2-2.8-3.2c-2,0-2.9,0.9-2.9,3v0.3c0,2.2,0.9,3.3,3,5.1
	l5.4,4.4c4,3.3,6,5.9,6,11.1v1.2c0,5.9-3.2,10.5-11.3,10.5h-1.3c-7.3,0-10.8-3.4-10.8-8.9v-6.2h8.4v5c0,2,1.1,3,3,3
	c1.9,0,2.9-1.2,2.9-3.5v-0.4c0-2.5-0.9-3.8-3.1-5.6l-5.4-4.4c-3.6-2.9-5.5-5.7-5.5-10.4v-1.2c0-6.2,3.6-9.5,10.9-9.5h1.3
	C292.5,221.8,295.8,224.8,295.8,230.2"/>
</svg>
