<?xml version="1.0" encoding="utf-8"?>
<!-- Generator: Adobe Illustrator 19.0.0, SVG Export Plug-In . SVG Version: 6.00 Build 0)  -->
<svg version="1.1" id="Layer_1" xmlns="http://www.w3.org/2000/svg" xmlns:xlink="http://www.w3.org/1999/xlink" x="0px" y="0px"
	 viewBox="0 0 364 364" style="enable-background:new 0 0 364 364;" xml:space="preserve">
<style type="text/css">
	.st0{fill:#FEBF10;}
	.st1{fill:#EE2724;}
	.st2{fill:#4F2B76;}
</style>
<path id="XMLID_17_" class="st0" d="M220.4,35.1c54.3,13.7,97.1,56.6,110.9,110.9h14.4C331.3,83.9,282.4,35,220.4,20.7V35.1z"/>
<path id="XMLID_16_" class="st1" d="M144.9,331.8c-55.1-14.1-98.3-58.2-111.2-113.7H19.4c13.4,63.3,62.7,113.5,125.5,128.1V331.8z"
	/>
<path id="XMLID_15_" class="st2" d="M22.8,162.5c-10.7,0-19.4,8.7-19.4,19.4c0,10.7,8.7,19.4,19.4,19.4c10.7,0,19.4-8.7,19.4-19.4
	C42.2,171.2,33.5,162.5,22.8,162.5"/>
<path id="XMLID_14_" class="st2" d="M341,162.5c-10.7,0-19.4,8.7-19.4,19.4c0,10.7,8.7,19.4,19.4,19.4c10.7,0,19.4-8.7,19.4-19.4
	C360.4,171.2,351.7,162.5,341,162.5"/>
<path id="XMLID_13_" class="st2" d="M162.5,341.1c0,10.7,8.7,19.4,19.4,19.4c10.7,0,19.4-8.7,19.4-19.4c0-10.7-8.7-19.4-19.4-19.4
	C171.2,321.6,162.5,330.4,162.5,341.1"/>
<path id="XMLID_12_" class="st2" d="M162.5,22.8c0,10.7,8.7,19.4,19.4,19.4c10.7,0,19.4-8.7,19.4-19.4c0-10.7-8.7-19.4-19.4-19.4
	C171.2,3.4,162.5,12.1,162.5,22.8"/>
<path id="XMLID_11_" class="st2" d="M200.1,177.7c0-12.8-10.4-23.3-23.3-23.3h-32.1c-0.2,0-0.4,0-0.6,0h-23.7
	c3,9.8,12,16.7,22.5,16.7h30.9c3.6,0,6.4,2.9,6.4,6.4c0,3.6-2.9,6.4-6.4,6.4h-40.1l-14.3,17h57.4
	C189.7,200.9,200.1,190.5,200.1,177.7"/>
<path id="XMLID_10_" class="st2" d="M295.3,162.5c0-21.2-17.3-38.5-38.5-38.5h-42.3l-14.1,17.4h52.2c11.7,0,21.2,9.5,21.2,21.2
	c0,11.7-9.5,21.2-21.2,21.2h-10.1h-2.3v-2.3v-27.2h-23.6v46.6h40.3C278,200.9,295.3,183.7,295.3,162.5"/>
<path id="XMLID_9_" class="st2" d="M142.9,124c-10.7,0-20,7.3-22.7,17.4h24.4h38.5l14.3-17.4H142.9z"/>
<rect id="XMLID_8_" x="80.7" y="154.4" class="st2" width="23.5" height="46.6"/>
<path id="XMLID_7_" class="st2" d="M104.8,133.6c0-6.8-5.5-12.3-12.3-12.3c-6.8,0-12.3,5.5-12.3,12.3c0,6.8,5.5,12.3,12.3,12.3
	C99.3,145.9,104.8,140.4,104.8,133.6"/>
<polygon id="XMLID_6_" class="st2" points="121.7,263.1 121.7,229.6 115.2,229.6 115.2,222.2 136.8,222.2 136.8,229.6 130.2,229.6 
	130.2,263.1 "/>
<polygon id="XMLID_5_" class="st2" points="160.3,222.2 160.3,229.6 149.6,229.6 149.6,238.2 158.6,238.2 158.6,245.8 149.6,245.8 
	149.6,255.6 160.6,255.6 160.6,263.1 141.2,263.1 141.2,222.2 "/>
<path id="XMLID_4_" class="st2" d="M181.6,247.4c-0.2-2.6-0.2-4.7-0.2-9.9v-15.2h7.3v40.9h-7.5l-6.4-18.6c-1.2-3.5-1.9-6.1-2.4-8.2
	c0.2,2.1,0.3,5,0.3,10.1v16.6h-7.4v-40.9h8.4l5.5,17C180.3,242.9,181.1,245.2,181.6,247.4"/>
<path id="XMLID_3_" class="st2" d="M210.6,247.4c-0.2-2.6-0.2-4.7-0.2-9.9v-15.2h7.3v40.9h-7.5l-6.4-18.6c-1.2-3.5-1.9-6.1-2.4-8.2
	c0.2,2.1,0.3,5,0.3,10.1v16.6h-7.4v-40.9h8.4l5.5,17C209.4,242.9,210.1,245.2,210.6,247.4"/>
<rect id="XMLID_2_" x="223.4" y="222.2" class="st2" width="8.7" height="40.9"/>
<path id="XMLID_1_" class="st2" d="M259.7,230.1v4.8h-8.2v-3.5c0-2.2-0.9-3.1-2.7-3.1c-2,0-2.9,0.9-2.9,3v0.3c0,2.2,0.9,3.3,3,5
	l5.4,4.4c4,3.3,6,5.8,6,11v1.2c0,5.8-3.2,10.4-11.3,10.4h-1.3c-7.3,0-10.7-3.4-10.7-8.8v-6.2h8.4v5c0,2,1,3,3,3
	c1.9,0,2.9-1.2,2.9-3.5v-0.4c0-2.5-0.9-3.8-3.1-5.5l-5.4-4.3c-3.6-2.9-5.5-5.7-5.5-10.4v-1.2c0-6.2,3.6-9.4,10.9-9.4h1.3
	C256.5,221.7,259.7,224.7,259.7,230.1"/>
</svg>
